…
Now that the empty rows and columns have been removed, we notice there are two columns, `absent` and `late`, where it seems someone started putting data into but then decided to stop:


```r
gradebook %>% 
  select(absent, late)
```

```
## # A tibble: 25 x 2
##    absent late 
##    <chr>  <chr>
##  1 1      0    
##  2 0      1    
##  3 2      0    
##  4 0      0    
##  5 0      0    
##  6 0      0    
##  7 0      0    
##  8 0      0    
##  9 0      0    
## 10 <NA>   <NA> 
## # ... with 15 more rows
```
…
