Chapter 8
…
count: false

.panel1-remove-empty-auto[

```r
# Removing rows with nothing but missing data
* gradebook
```
]
 
.panel2-remove-empty-auto[

```
# A tibble: 33 x 63
   class name   race  gender age   repeated_grades financial_status absent late 
   <dbl> <chr>  <lgl> <lgl>  <lgl> <lgl>           <lgl>            <chr>  <chr>
 1     1 Stude~ NA    NA     NA    NA              NA               1      0    
 2     1 Stude~ NA    NA     NA    NA              NA               0      1    
 3     1 Stude~ NA    NA     NA    NA              NA               2      0    
 4     1 Stude~ NA    NA     NA    NA              NA               0      0    
 5     1 Stude~ NA    NA     NA    NA              NA               0      0    
 6     1 Stude~ NA    NA     NA    NA              NA               0      0    
 7     1 Stude~ NA    NA     NA    NA              NA               0      0    
 8     1 Stude~ NA    NA     NA    NA              NA               0      0    
 9     1 Stude~ NA    NA     NA    NA              NA               0      0    
10     1 Stude~ NA    NA     NA    NA              NA               <NA>   <NA> 
# ... with 23 more rows, and 54 more variables: make_your_own_categories <lgl>,
#   running_average <dbl>, letter_grade <chr>, homeworks <dbl>,
#   classworks <dbl>, formative_assessments <dbl>, projects <dbl>,
#   summative_assessments <dbl>, another_type_2 <lgl>, classwork_1 <dbl>,
#   homework_1 <dbl>, classwork_2 <dbl>, homework_2 <chr>, classwork_3 <chr>,
#   classwork_4 <dbl>, classwork_5 <dbl>, classwork_6 <dbl>, homework_3 <dbl>,
#   formative_assessment_1 <dbl>, project_1 <dbl>, classwork_7 <dbl>,
#   homework_4 <dbl>, project_2 <chr>, classwork_8 <dbl>, homework_5 <dbl>,
#   project_3 <dbl>, homework_6 <dbl>, classwork_9 <dbl>, homework_7 <dbl>,
…
.panel1-remove-empty-auto[

```r
# Removing rows with nothing but missing data
  gradebook %>%
* remove_empty("cols")
```
]
 
.panel2-remove-empty-auto[

```
# A tibble: 33 x 55
   class name     absent late  running_average letter_grade homeworks classworks
   <dbl> <chr>    <chr>  <chr>           <dbl> <chr>            <dbl>      <dbl>
 1     1 Student~ 1      0                99.4 A+               100         99.2
 2     1 Student~ 0      1                79.4 C+                53.3       88.2
 3     1 Student~ 2      0                86.6 B+                62         88.3
 4     1 Student~ 0      0                80.2 B-                60         78.8
 5     1 Student~ 0      0                86.5 B+                72.4       74.1
 6     1 Student~ 0      0                83.8 B                 80         76.5
 7     1 Student~ 0      0                84.8 B                 87.6       76.9
 8     1 Student~ 0      0                90.2 A-                85.7       82.4
 9     1 Student~ 0      0                92.3 A-                94.3       83.1
10     1 Student~ <NA>   <NA>             84.5 B                 90.5       71.8
# ... with 23 more rows, and 47 more variables: formative_assessments <dbl>,
#   projects <dbl>, summative_assessments <dbl>, classwork_1 <dbl>,
#   homework_1 <dbl>, classwork_2 <dbl>, homework_2 <chr>, classwork_3 <chr>,
#   classwork_4 <dbl>, classwork_5 <dbl>, classwork_6 <dbl>, homework_3 <dbl>,
#   formative_assessment_1 <dbl>, project_1 <dbl>, classwork_7 <dbl>,
#   homework_4 <dbl>, project_2 <chr>, classwork_8 <dbl>, homework_5 <dbl>,
#   project_3 <dbl>, homework_6 <dbl>, classwork_9 <dbl>, homework_7 <dbl>,
#   homework_8 <dbl>, project_4 <dbl>, project_5 <dbl>,
#   formative_assessment_2 <dbl>, project_6 <dbl>, classwork_10 <dbl>,
…
.panel1-remove-empty-auto[

```r
# Removing rows with nothing but missing data
  gradebook %>%
  remove_empty("cols") %>%
* remove_empty("rows")
```
]
 
.panel2-remove-empty-auto[

```
# A tibble: 25 x 55
   class name     absent late  running_average letter_grade homeworks classworks
   <dbl> <chr>    <chr>  <chr>           <dbl> <chr>            <dbl>      <dbl>
 1     1 Student~ 1      0                99.4 A+               100         99.2
 2     1 Student~ 0      1                79.4 C+                53.3       88.2
 3     1 Student~ 2      0                86.6 B+                62         88.3
 4     1 Student~ 0      0                80.2 B-                60         78.8
 5     1 Student~ 0      0                86.5 B+                72.4       74.1
 6     1 Student~ 0      0                83.8 B                 80         76.5
 7     1 Student~ 0      0                84.8 B                 87.6       76.9
 8     1 Student~ 0      0                90.2 A-                85.7       82.4
 9     1 Student~ 0      0                92.3 A-                94.3       83.1
10     1 Student~ <NA>   <NA>             84.5 B                 90.5       71.8
# ... with 15 more rows, and 47 more variables: formative_assessments <dbl>,
#   projects <dbl>, summative_assessments <dbl>, classwork_1 <dbl>,
#   homework_1 <dbl>, classwork_2 <dbl>, homework_2 <chr>, classwork_3 <chr>,
#   classwork_4 <dbl>, classwork_5 <dbl>, classwork_6 <dbl>, homework_3 <dbl>,
#   formative_assessment_1 <dbl>, project_1 <dbl>, classwork_7 <dbl>,
#   homework_4 <dbl>, project_2 <chr>, classwork_8 <dbl>, homework_5 <dbl>,
#   project_3 <dbl>, homework_6 <dbl>, classwork_9 <dbl>, homework_7 <dbl>,
#   homework_8 <dbl>, project_4 <dbl>, project_5 <dbl>,
#   formative_assessment_2 <dbl>, project_6 <dbl>, classwork_10 <dbl>,
…
---

Now that the empty rows and columns have been removed, we notice there are two columns, `absent` and `late`, where it seems someone started putting data into but then decided to stop:

```r
gradebook %>% 
  select(absent, late)
```

```
# A tibble: 25 x 2
   absent late 
   <chr>  <chr>
 1 1      0    
 2 0      1    
 3 2      0    
 4 0      0    
 5 0      0    
 6 0      0    
 7 0      0    
 8 0      0    
 9 0      0    
10 <NA>   <NA> 
# ... with 15 more rows
```
…
count: false

.panel1-neg-select-auto[

```r
# Remove a targeted column because we don't use absent and late at this school.
*gradebook
```
]
 
.panel2-neg-select-auto[

```
# A tibble: 25 x 55
   class name     absent late  running_average letter_grade homeworks classworks
   <dbl> <chr>    <chr>  <chr>           <dbl> <chr>            <dbl>      <dbl>
 1     1 Student~ 1      0                99.4 A+               100         99.2
 2     1 Student~ 0      1                79.4 C+                53.3       88.2
 3     1 Student~ 2      0                86.6 B+                62         88.3
 4     1 Student~ 0      0                80.2 B-                60         78.8
 5     1 Student~ 0      0                86.5 B+                72.4       74.1
 6     1 Student~ 0      0                83.8 B                 80         76.5
 7     1 Student~ 0      0                84.8 B                 87.6       76.9
 8     1 Student~ 0      0                90.2 A-                85.7       82.4
 9     1 Student~ 0      0                92.3 A-                94.3       83.1
10     1 Student~ <NA>   <NA>             84.5 B                 90.5       71.8
# ... with 15 more rows, and 47 more variables: formative_assessments <dbl>,
#   projects <dbl>, summative_assessments <dbl>, classwork_1 <dbl>,
#   homework_1 <dbl>, classwork_2 <dbl>, homework_2 <chr>, classwork_3 <chr>,
#   classwork_4 <dbl>, classwork_5 <dbl>, classwork_6 <dbl>, homework_3 <dbl>,
#   formative_assessment_1 <dbl>, project_1 <dbl>, classwork_7 <dbl>,
#   homework_4 <dbl>, project_2 <chr>, classwork_8 <dbl>, homework_5 <dbl>,
#   project_3 <dbl>, homework_6 <dbl>, classwork_9 <dbl>, homework_7 <dbl>,
#   homework_8 <dbl>, project_4 <dbl>, project_5 <dbl>,
#   formative_assessment_2 <dbl>, project_6 <dbl>, classwork_10 <dbl>,
…
.panel1-neg-select-auto[

```r
# Remove a targeted column because we don't use absent and late at this school.
gradebook %>%
* select(-absent, -late)
```
]
 
.panel2-neg-select-auto[

```
# A tibble: 25 x 53
   class name       running_average letter_grade homeworks classworks
   <dbl> <chr>                <dbl> <chr>            <dbl>      <dbl>
 1     1 Student 1             99.4 A+               100         99.2
 2     1 Student 2             79.4 C+                53.3       88.2
 3     1 Student 3             86.6 B+                62         88.3
 4     1 Student 4             80.2 B-                60         78.8
 5     1 Student 5             86.5 B+                72.4       74.1
 6     1 Student 6             83.8 B                 80         76.5
 7     1 Student 7             84.8 B                 87.6       76.9
 8     1 Student 8             90.2 A-                85.7       82.4
 9     1 Student 9             92.3 A-                94.3       83.1
10     1 Student 10            84.5 B                 90.5       71.8
# ... with 15 more rows, and 47 more variables: formative_assessments <dbl>,
#   projects <dbl>, summative_assessments <dbl>, classwork_1 <dbl>,
#   homework_1 <dbl>, classwork_2 <dbl>, homework_2 <chr>, classwork_3 <chr>,
#   classwork_4 <dbl>, classwork_5 <dbl>, classwork_6 <dbl>, homework_3 <dbl>,
#   formative_assessment_1 <dbl>, project_1 <dbl>, classwork_7 <dbl>,
#   homework_4 <dbl>, project_2 <chr>, classwork_8 <dbl>, homework_5 <dbl>,
#   project_3 <dbl>, homework_6 <dbl>, classwork_9 <dbl>, homework_7 <dbl>,
#   homework_8 <dbl>, project_4 <dbl>, project_5 <dbl>,
#   formative_assessment_2 <dbl>, project_6 <dbl>, classwork_10 <dbl>,
…
```r
# Creates new data frame,
# selects desired variables
# from gradebook, and gathers
# all classwork scores into
# key/value pairs
*gradebook
```
]
 
.panel2-classwork-df-auto[

```
# A tibble: 25 x 53
   class name       running_average letter_grade homeworks classworks
   <dbl> <chr>                <dbl> <chr>            <dbl>      <dbl>
 1     1 Student 1             99.4 A+               100         99.2
 2     1 Student 2             79.4 C+                53.3       88.2
 3     1 Student 3             86.6 B+                62         88.3
 4     1 Student 4             80.2 B-                60         78.8
 5     1 Student 5             86.5 B+                72.4       74.1
 6     1 Student 6             83.8 B                 80         76.5
 7     1 Student 7             84.8 B                 87.6       76.9
 8     1 Student 8             90.2 A-                85.7       82.4
 9     1 Student 9             92.3 A-                94.3       83.1
10     1 Student 10            84.5 B                 90.5       71.8
# ... with 15 more rows, and 47 more variables: formative_assessments <dbl>,
#   projects <dbl>, summative_assessments <dbl>, classwork_1 <dbl>,
#   homework_1 <dbl>, classwork_2 <dbl>, homework_2 <chr>, classwork_3 <chr>,
#   classwork_4 <dbl>, classwork_5 <dbl>, classwork_6 <dbl>, homework_3 <dbl>,
#   formative_assessment_1 <dbl>, project_1 <dbl>, classwork_7 <dbl>,
#   homework_4 <dbl>, project_2 <chr>, classwork_8 <dbl>, homework_5 <dbl>,
#   project_3 <dbl>, homework_6 <dbl>, classwork_9 <dbl>, homework_7 <dbl>,
#   homework_8 <dbl>, project_4 <dbl>, project_5 <dbl>,
#   formative_assessment_2 <dbl>, project_6 <dbl>, classwork_10 <dbl>,
…
.panel2-classwork-df-auto[

```
# A tibble: 25 x 25
   name     running_average letter_grade homeworks classworks formative_assessm~
   <chr>              <dbl> <chr>            <dbl>      <dbl>              <dbl>
 1 Student~            99.4 A+               100         99.2               96.7
 2 Student~            79.4 C+                53.3       88.2               86.7
 3 Student~            86.6 B+                62         88.3               93.3
 4 Student~            80.2 B-                60         78.8               84  
 5 Student~            86.5 B+                72.4       74.1               86.7
 6 Student~            83.8 B                 80         76.5               79.3
 7 Student~            84.8 B                 87.6       76.9               81.3
 8 Student~            90.2 A-                85.7       82.4               89.3
 9 Student~            92.3 A-                94.3       83.1               82.7
10 Student~            84.5 B                 90.5       71.8               70.7
# ... with 15 more rows, and 19 more variables: projects <dbl>,
#   summative_assessments <dbl>, classwork_1 <dbl>, classwork_2 <dbl>,
#   classwork_3 <chr>, classwork_4 <dbl>, classwork_5 <dbl>, classwork_6 <dbl>,
#   classwork_7 <dbl>, classwork_8 <dbl>, classwork_9 <dbl>,
#   classwork_10 <dbl>, classwork_11 <dbl>, classwork_12 <dbl>,
#   classwork_13 <dbl>, classwork_14 <dbl>, classwork_15 <dbl>,
#   classwork_16 <dbl>, classwork_17 <dbl>
```
…
.panel2-classwork-df-auto[

```
# A tibble: 25 x 25
   name     running_average letter_grade homeworks classworks formative_assessm~
   <chr>              <dbl> <chr>            <dbl>      <dbl>              <dbl>
 1 Student~            99.4 A+               100         99.2               96.7
 2 Student~            79.4 C+                53.3       88.2               86.7
 3 Student~            86.6 B+                62         88.3               93.3
 4 Student~            80.2 B-                60         78.8               84  
 5 Student~            86.5 B+                72.4       74.1               86.7
 6 Student~            83.8 B                 80         76.5               79.3
 7 Student~            84.8 B                 87.6       76.9               81.3
 8 Student~            90.2 A-                85.7       82.4               89.3
 9 Student~            92.3 A-                94.3       83.1               82.7
10 Student~            84.5 B                 90.5       71.8               70.7
# ... with 15 more rows, and 19 more variables: projects <dbl>,
#   summative_assessments <dbl>, classwork_1 <dbl>, classwork_2 <dbl>,
#   classwork_3 <dbl>, classwork_4 <dbl>, classwork_5 <dbl>, classwork_6 <dbl>,
#   classwork_7 <dbl>, classwork_8 <dbl>, classwork_9 <dbl>,
#   classwork_10 <dbl>, classwork_11 <dbl>, classwork_12 <dbl>,
#   classwork_13 <dbl>, classwork_14 <dbl>, classwork_15 <dbl>,
#   classwork_16 <dbl>, classwork_17 <dbl>
```
…
count: false

.panel1-bargraph-auto[

```r
# Bar graph for categorical variable
*gradebook
```
]
 
.panel2-bargraph-auto[

```
# A tibble: 25 x 53
   class name       running_average letter_grade homeworks classworks
   <dbl> <chr>                <dbl> <chr>            <dbl>      <dbl>
 1     1 Student 1             99.4 A+               100         99.2
 2     1 Student 2             79.4 C+                53.3       88.2
 3     1 Student 3             86.6 B+                62         88.3
 4     1 Student 4             80.2 B-                60         78.8
 5     1 Student 5             86.5 B+                72.4       74.1
 6     1 Student 6             83.8 B                 80         76.5
 7     1 Student 7             84.8 B                 87.6       76.9
 8     1 Student 8             90.2 A-                85.7       82.4
 9     1 Student 9             92.3 A-                94.3       83.1
10     1 Student 10            84.5 B                 90.5       71.8
# ... with 15 more rows, and 47 more variables: formative_assessments <dbl>,
#   projects <dbl>, summative_assessments <dbl>, classwork_1 <dbl>,
#   homework_1 <dbl>, classwork_2 <dbl>, homework_2 <chr>, classwork_3 <chr>,
#   classwork_4 <dbl>, classwork_5 <dbl>, classwork_6 <dbl>, homework_3 <dbl>,
#   formative_assessment_1 <dbl>, project_1 <dbl>, classwork_7 <dbl>,
#   homework_4 <dbl>, project_2 <chr>, classwork_8 <dbl>, homework_5 <dbl>,
#   project_3 <dbl>, homework_6 <dbl>, classwork_9 <dbl>, homework_7 <dbl>,
#   homework_8 <dbl>, project_4 <dbl>, project_5 <dbl>,
#   formative_assessment_2 <dbl>, project_6 <dbl>, classwork_10 <dbl>,
…
count: false

.panel1-score-boxplot-auto[

```r
# Boxplot of scores per classwork
*classwork_df
```
]
 
.panel2-score-boxplot-auto[

```
# A tibble: 425 x 10
   name     running_average letter_grade homeworks classworks formative_assessm~
   <chr>              <dbl> <chr>            <dbl>      <dbl>              <dbl>
 1 Student~            99.4 A+                 100       99.2               96.7
 2 Student~            99.4 A+                 100       99.2               96.7
 3 Student~            99.4 A+                 100       99.2               96.7
 4 Student~            99.4 A+                 100       99.2               96.7
 5 Student~            99.4 A+                 100       99.2               96.7
 6 Student~            99.4 A+                 100       99.2               96.7
 7 Student~            99.4 A+                 100       99.2               96.7
 8 Student~            99.4 A+                 100       99.2               96.7
 9 Student~            99.4 A+                 100       99.2               96.7
10 Student~            99.4 A+                 100       99.2               96.7
# ... with 415 more rows, and 4 more variables: projects <dbl>,
#   summative_assessments <dbl>, classwork_number <chr>, score <dbl>
```
…
.panel1-scatterplot-auto[

```r
# Scatterplot between formative
# assessment and grades by percent
# To determine linear relationship
*gradebook
```
]
 
.panel2-scatterplot-auto[

```
# A tibble: 25 x 53
   class name       running_average letter_grade homeworks classworks
   <dbl> <chr>                <dbl> <chr>            <dbl>      <dbl>
 1     1 Student 1             99.4 A+               100         99.2
 2     1 Student 2             79.4 C+                53.3       88.2
 3     1 Student 3             86.6 B+                62         88.3
 4     1 Student 4             80.2 B-                60         78.8
 5     1 Student 5             86.5 B+                72.4       74.1
 6     1 Student 6             83.8 B                 80         76.5
 7     1 Student 7             84.8 B                 87.6       76.9
 8     1 Student 8             90.2 A-                85.7       82.4
 9     1 Student 9             92.3 A-                94.3       83.1
10     1 Student 10            84.5 B                 90.5       71.8
# ... with 15 more rows, and 47 more variables: formative_assessments <dbl>,
#   projects <dbl>, summative_assessments <dbl>, classwork_1 <dbl>,
#   homework_1 <dbl>, classwork_2 <dbl>, homework_2 <chr>, classwork_3 <chr>,
#   classwork_4 <dbl>, classwork_5 <dbl>, classwork_6 <dbl>, homework_3 <dbl>,
#   formative_assessment_1 <dbl>, project_1 <dbl>, classwork_7 <dbl>,
#   homework_4 <dbl>, project_2 <chr>, classwork_8 <dbl>, homework_5 <dbl>,
#   project_3 <dbl>, homework_6 <dbl>, classwork_9 <dbl>, homework_7 <dbl>,
#   homework_8 <dbl>, project_4 <dbl>, project_5 <dbl>,
#   formative_assessment_2 <dbl>, project_6 <dbl>, classwork_10 <dbl>,
…
