Text Analysis with Social Media Data
…
]
---
# Can we count already?

This part is fairly simple. We can use methods from `dplyr` we already know!

.pull-left[

```r
tokens %>% 
    count(word, sort = TRUE)
```

```
## # A tibble: 15,335 x 2
##    word            n
##    <chr>       <int>
##  1 t.co         5432
##  2 https        5406
##  3 tidytuesday  4316
##  4 rstats       1748
##  5 data         1105
##  6 code          988
##  7 week          868
##  8 r4ds          675
##  9 dataviz       607
## 10 time          494
## # … with 15,325 more rows
```
**Conclusion**: “tidytuesday” represents only 6% of all words
]
.pull-right[

```r
tokens %>%
  count(word, sort = TRUE) %>%
  # n as a percent of total words
  mutate(percent = n / sum(n) * 100)
```

```
## # A tibble: 15,335 x 3
##    word            n percent
##    <chr>       <int>   <dbl>
##  1 t.co         5432   7.39 
##  2 https        5406   7.36 
##  3 tidytuesday  4316   5.87 
##  4 rstats       1748   2.38 
##  5 data         1105   1.50 
##  6 code          988   1.34 
##  7 week          868   1.18 
##  8 r4ds          675   0.919
##  9 dataviz       607   0.826
## 10 time          494   0.672
## # … with 15,325 more rows
```
…
