Exploring Relationships Using Social Network Analysis With Social Media Data
…
.pull-right[

```r
print(mentions)
```

```
## # A tibble: 2,447 x 2
##    sender  receiver       
##    <chr>   <chr>          
##  1 cizzart eldestapeweb   
##  2 cizzart INDECArgentina 
##  3 cizzart ENACOMArgentina
##  4 cizzart tribunalelecmns
##  5 cizzart CamaraElectoral
##  6 cizzart INDECArgentina 
##  7 cizzart tribunalelecmns
##  8 cizzart CamaraElectoral
##  9 cizzart AgroMnes       
## 10 cizzart AgroindustriaAR
## # … with 2,437 more rows
```
…
